/* XPM */
static const char * Exit_xpm[] = {
"24 24 151 2",
"  	c #D1D5D1",
". 	c #D1D1D1",
"+ 	c #ECF5FF",
"@ 	c #515C87",
"# 	c #687999",
"$ 	c #E8F3FF",
"% 	c #ECECEC",
"& 	c #E7E7E7",
"* 	c #53658B",
"= 	c #E4F1FF",
"- 	c #52658B",
"; 	c #E5F2FF",
"> 	c #E0F0FF",
", 	c #E3E3E3",
"' 	c #A5A6C0",
") 	c #DCEEFF",
"! 	c #589558",
"~ 	c #DEDEDE",
"{ 	c #B9BDCF",
"] 	c #EAF4FF",
"^ 	c #D9ECFF",
"/ 	c #348C31",
"( 	c #3A9633",
"_ 	c #6B8F6A",
": 	c #DADADA",
"< 	c #B3B8CA",
"[ 	c #C4C5D6",
"} 	c #D5EAFF",
"| 	c #509E49",
"1 	c #A4F28F",
"2 	c #50B146",
"3 	c #649C63",
"4 	c #D5D5D5",
"5 	c #ADB2C7",
"6 	c #C0C0D3",
"7 	c #E0EFFF",
"8 	c #D1E8FF",
"9 	c #4E9E49",
"0 	c #6FC064",
"a 	c #5BBC4D",
"b 	c #5CBD4F",
"c 	c #66C359",
"d 	c #71F65F",
"e 	c #67F15A",
"f 	c #5CC552",
"g 	c #348634",
"h 	c #D0D0D0",
"i 	c #A7ADC2",
"j 	c #BCBCCF",
"k 	c #DBEDFF",
"l 	c #CDE6FF",
"m 	c #5BB54F",
"n 	c #73EF5C",
"o 	c #70F457",
"p 	c #71F859",
"q 	c #68F754",
"r 	c #4FF341",
"s 	c #3CEA33",
"t 	c #42DE38",
"u 	c #4FC943",
"v 	c #509B4E",
"w 	c #CCCCCC",
"x 	c #A2A8BF",
"y 	c #B7B8CC",
"z 	c #D6EAFF",
"A 	c #CAE4FF",
"B 	c #4EB443",
"C 	c #57EB45",
"D 	c #52F040",
"E 	c #51F240",
"F 	c #4AEC3A",
"G 	c #41DC2E",
"H 	c #34CA22",
"I 	c #25BD18",
"J 	c #22B719",
"K 	c #44C939",
"L 	c #629562",
"M 	c #9CA2BB",
"N 	c #B3B3C9",
"O 	c #C6E2FF",
"P 	c #3DB336",
"Q 	c #4DEC42",
"R 	c #48EF3E",
"S 	c #48E538",
"T 	c #46D832",
"U 	c #36CB24",
"V 	c #28BF1A",
"W 	c #27BF1C",
"X 	c #30BE27",
"Y 	c #408E3E",
"Z 	c #C3C3C3",
"` 	c #969DB7",
" .	c #AEAFC6",
"..	c #8693AD",
"+.	c #CCE5FF",
"@.	c #C2E1FF",
"#.	c #389537",
"$.	c #42A740",
"%.	c #29A026",
"&.	c #289E24",
"*.	c #299B22",
"=.	c #2CAA24",
"-.	c #31C823",
";.	c #26C31C",
">.	c #1FB018",
",.	c #257525",
"'.	c #BEBEBE",
").	c #9097B2",
"!.	c #AAAAC3",
"~.	c #C7E3FF",
"{.	c #BEDFFF",
"].	c #20921C",
"^.	c #21CC18",
"/.	c #0E9C0B",
"(.	c #397339",
"_.	c #B9B9B9",
":.	c #8A92AF",
"<.	c #C2E0FF",
"[.	c #BADDFF",
"}.	c #158414",
"|.	c #0A8B09",
"1.	c #537653",
"2.	c #B5B5B5",
"3.	c #858CAA",
"4.	c #A1A1BD",
"5.	c #BDDEFF",
"6.	c #B7DBFF",
"7.	c #528E52",
"8.	c #465175",
"9.	c #B0B0B0",
"0.	c #7F87A7",
"a.	c #9C9DBA",
"b.	c #B8DBFF",
"c.	c #B3D9FF",
"d.	c #9899B6",
"e.	c #AFD7FF",
"f.	c #9394B3",
"g.	c #AED6FF",
"h.	c #A7D4FF",
"i.	c #8F90B0",
"j.	c #A8D4FF",
"k.	c #7982A3",
"l.	c #8A8BAD",
"m.	c #737C9F",
"n.	c #8687AA",
"o.	c #797AA1",
"p.	c #6D779A",
"q.	c #8182A7",
"r.	c #7879A0",
"s.	c #687197",
"t.	c #7D7EA4",
". . . . . . . . . . . . . . . . . . . . . . . . ",
". + + + + + + + + @ @ @ @ @ @ @ @ @ @ @ @ @ # . ",
". $ $ $ $ $ $ $ $ @ % % % % % & & & & & * * * . ",
". = = = = = = = = @ & & & & & & & & # - * ; @ . ",
". > > > > > > > > @ , , , , , , ' # # # ; ; @ . ",
". ) ) ) ) ) ) ) ! @ ~ ~ ~ ~ ~ { ' # ; ; ; ] @ . ",
". ^ ^ ^ ^ ^ ^ ^ / ( _ : : : : < [ ; ; ; ; ; @ . ",
". } } } } } } } | 1 2 3 4 4 4 5 6 ; 7 7 7 7 @ . ",
". 8 9 0 a b b b c d e f g h h i j 7 k k k k @ . ",
". l m n n o o p q r s t u v w x y k z z z z @ . ",
". A B C C D D E F G H I J K L M N z 8 8 8 8 @ . ",
". O P Q Q R R S T U V W X Y Z `  .8 * ..+.+.@ . ",
". @.#.$.%.&.&.*.=.-.;.>.,.'.'.).!.+.* ..~.~.@ . ",
". {.{.{.{.{.{.{.].^./.(._._._.:.' ~.* <.<.<.@ . ",
". [.[.[.[.[.[.[.}.|.1.2.2.2.2.3.4.<.5.5.5.5.@ . ",
". 6.6.6.6.6.6.6.7.8.9.9.9.9.9.0.a.5.b.b.b.b.@ . ",
". c.c.c.c.c.c.c.c.@ @ @ @ @ @ :.d.b.c.c.c.c.@ . ",
". e.e.e.e.e.e.e.e.@ @ @ @ @ . 3.f.c.g.g.g.g.@ . ",
". h.h.h.h.h.h.h.h.@ @ @ . . . 0.i.g.j.j.j.j.* . ",
". @ @ @ @ @ @ @ @ @ . . . . . 0.i.g.j.j.j.* * . ",
". . . . . . . . . . . . . . . k.l.j.j.j.* * . . ",
". . . . . . . . . . . . . . . m.n.j.j.o.* . . . ",
". . . . . . . . . . . . . . . p.q.j.r.o.. . . . ",
". . . . . . . . . . . . . . . s.t.o.o.. . . . . "};
