/* XPM */
static const char * SendCommandIns_xpm[] = {
"24 24 93 2",
"  	c #d1d1d5d5d1d1",
". 	c #E3E3E3",
"+ 	c #DDDDDD",
"@ 	c #D8D8D8",
"# 	c #D3D3D3",
"$ 	c #CDCDCD",
"% 	c #CCCCCC",
"& 	c #E6E6E6",
"* 	c #E1E1E1",
"= 	c #D4D4D4",
"- 	c #CFCFCF",
"; 	c #D0D0D0",
"> 	c #D5D5D5",
", 	c #DADADA",
"' 	c #DBDBDB",
") 	c #DEDEDE",
"! 	c #DFDFDF",
"~ 	c #C5C5C5",
"{ 	c #E2E2E2",
"] 	c #E5E5E5",
"^ 	c #E8E8E8",
"/ 	c #EBEBEB",
"( 	c #EEEEEE",
"_ 	c #F1F1F1",
": 	c #F4F4F4",
"< 	c #F7F7F7",
"[ 	c #F6F6F6",
"} 	c #F3F3F3",
"| 	c #EFEFEF",
"1 	c #C4C4C4",
"2 	c #FDFDFD",
"3 	c #FCFCFC",
"4 	c #FBFBFB",
"5 	c #FAFAFA",
"6 	c #F9F9F9",
"7 	c #F8F8F8",
"8 	c #F5F5F5",
"9 	c #F0F0F0",
"0 	c #D7D7D7",
"a 	c #C3C3C3",
"b 	c #F2F2F2",
"c 	c #D2D2D2",
"d 	c #EDEDED",
"e 	c #C2C2C2",
"f 	c #D1D1D1",
"g 	c #ECECEC",
"h 	c #E7E7E7",
"i 	c #C1C1C1",
"j 	c #E9E9E9",
"k 	c #E4E4E4",
"l 	c #E0E0E0",
"m 	c #C0C0C0",
"n 	c #D9D9D9",
"o 	c #BBBBBB",
"p 	c #A8A8A8",
"q 	c #A0A0A0",
"r 	c #A7A7A7",
"s 	c #B4B4B4",
"t 	c #BFBFBF",
"u 	c #B5B5B5",
"v 	c #A5A5A5",
"w 	c #C8C8C8",
"x 	c #B1B1B1",
"y 	c #A2A2A2",
"z 	c #CECECE",
"A 	c #ACACAC",
"B 	c #B2B2B2",
"C 	c #C9C9C9",
"D 	c #BCBCBC",
"E 	c #A9A9A9",
"F 	c #CACACA",
"G 	c #BDBDBD",
"H 	c #BABABA",
"I 	c #FFFFFF",
"J 	c #B9B9B9",
"K 	c #B7B7B7",
"L 	c #CBCBCB",
"M 	c #D6D6D6",
"N 	c #AFAFAF",
"O 	c #EAEAEA",
"P 	c #B8B8B8",
"Q 	c #ABABAB",
"R 	c #C6C6C6",
"S 	c #AEAEAE",
"T 	c #FEFEFE",
"U 	c #B3B3B3",
"V 	c #9F9F9F",
"W 	c #C7C7C7",
"X 	c #B6B6B6",
"Y 	c #B0B0B0",
"Z 	c #A1A1A1",
"` 	c #A4A4A4",
" .	c #ADADAD",
"                              . + @ # $ %       ",
"        & * + @ = - ; # > @ , ' + ) ! ! ~       ",
"> ! { ] ^ / ( _ : < < [ } _ | & * + ' . 1       ",
"= 2 2 3 3 4 5 6 6 7 < 8 } 9 ( 0 0 0 0 . a       ",
"# 2 3 3 4 5 5 6 7 < [ : b 9 ( 0 0 0 0 { a       ",
"c 3 4 4 5 5 6 6 7 < 8 } _ | d 0 0 0 @ { e       ",
"f 4 4 5 5 6 6 7 < [ : b 9 ( g h & ] . * i       ",
"; 5 5 6 6 6 7 < < 8 } _ | d / j h k { l m       ",
"- 6 6 6 7 7 < < 8 } b 9 n o p q q r s % t       ",
"- 7 7 7 < < } d h * n u v o w % w t x y v       ",
"z < < < g @ ' ! . { A B c f $ C ~ e t D E u     ",
"$ [ [ 8 : } b _ 9 D B = f $ C F 0 m G D H p ~   ",
"% : } } b _ 9 | n v c f $ C ~ ] I j G o J K y   ",
"L _ _ 9 / ! , M N o f $ C ~ e L 5 I O o P K Q R ",
"L | | ( O k ^ O p w $ C ~ e t G w 6 I / J u x S ",
"F d g g / / O j q % C & T I I I I I I I & s U y ",
"C O O j k + 0 ; V w ~ k T I I I I I I I & U x y ",
"w c % W $ > ) h Q t e t G D o J R 6 I j X B S S ",
"                R x t G D o J R 6 I ^ u B Y p R ",
"                  y D D o J P * I & u B Y N Z   ",
"                  ~ E H J P K D $ s B Y N ` R   ",
"                    X p K K u s U B Y N ` K     ",
"                      ~ y Q x U x S p Z ~       ",
"                          R  .Z Z  .~           "};
