/* XPM */
static const char * ShowInfoIns_xpm[] = {
"24 24 149 2",
"  	c #D1D5D1",
". 	c #D3D7D3",
"+ 	c #D4D8D4",
"@ 	c #D5D9D5",
"# 	c #D7DAD7",
"$ 	c #D9DCD9",
"% 	c #DADDDA",
"& 	c #DCDFDC",
"* 	c #DDE0DD",
"= 	c #DEE1DE",
"- 	c #DFE2DF",
"; 	c #D3D6D3",
"> 	c #D1D5D1",
", 	c #D7DBD7",
"' 	c #D9DDD9",
") 	c #E1E3E1",
"! 	c #E2E4E2",
"~ 	c #E2E5E2",
"{ 	c #E1E4E1",
"] 	c #E0E3E0",
"^ 	c #D8DBD8",
"/ 	c #D6D9D6",
"( 	c #E3E5E3",
"_ 	c #E4E6E4",
": 	c #E5E7E5",
"< 	c #DBDEDB",
"[ 	c #D8DCD8",
"} 	c #D6DAD6",
"| 	c #D2D6D2",
"1 	c #E6E8E6",
"2 	c #D4D7D4",
"3 	c #D0D4D0",
"4 	c #E5E8E5",
"5 	c #E7E9E7",
"6 	c #E0E2E0",
"7 	c #D5D8D5",
"8 	c #CFD3CF",
"9 	c #CCD0CC",
"0 	c #A2A3A2",
"a 	c #A3A4A3",
"b 	c #A6A8A6",
"c 	c #A4A6A4",
"d 	c #A1A3A1",
"e 	c #A0A2A0",
"f 	c #9EA09E",
"g 	c #9D9F9D",
"h 	c #9A9D9A",
"i 	c #A4A7A4",
"j 	c #BFC1BF",
"k 	c #CBCFCB",
"l 	c #C8CCC8",
"m 	c #B4B5B4",
"n 	c #C9CAC9",
"o 	c #D2D4D2",
"p 	c #D1D2D1",
"q 	c #CFD1CF",
"r 	c #CDCFCD",
"s 	c #CBCDCB",
"t 	c #C9CBC9",
"u 	c #C7C9C7",
"v 	c #C5C8C5",
"w 	c #CDD0CD",
"x 	c #C6CAC6",
"y 	c #C4C8C4",
"z 	c #C3C7C3",
"A 	c #ACAEAC",
"B 	c #C7C8C7",
"C 	c #CFD0CF",
"D 	c #E9EBE9",
"E 	c #EAECEA",
"F 	c #E8EAE8",
"G 	c #C2C5C2",
"H 	c #C0C4C0",
"I 	c #BFC3BF",
"J 	c #E4E7E4",
"K 	c #CCCECC",
"L 	c #EAEBEA",
"M 	c #E3E6E3",
"N 	c #DFE1DF",
"O 	c #D5D7D5",
"P 	c #BEC1BE",
"Q 	c #BCC0BC",
"R 	c #B5B6B5",
"S 	c #CCCFCC",
"T 	c #D1D3D1",
"U 	c #BABEBA",
"V 	c #B8BBB8",
"W 	c #B3B5B3",
"X 	c #D0D2D0",
"Y 	c #C0C2C0",
"Z 	c #CED1CE",
"` 	c #B7BBB7",
" .	c #B5B8B5",
"..	c #ECEEED",
"+.	c #D0D3D0",
"@.	c #C7CBC7",
"#.	c #C0C3C0",
"$.	c #CACCCA",
"%.	c #B2B6B2",
"&.	c #DBDEDC",
"*.	c #CDD1CD",
"=.	c #C6C9C6",
"-.	c #BDC1BD",
";.	c #B1B4B1",
">.	c #B0B3B0",
",.	c #CACECA",
"'.	c #C3C6C3",
").	c #BBBEBB",
"!.	c #AEB1AE",
"~.	c #DDE0DE",
"{.	c #DCE0DD",
"].	c #DADDD9",
"^.	c #D6D8D5",
"/.	c #D3D7D4",
"(.	c #ACB0AC",
"_.	c #D2D5D2",
":.	c #BCBFBC",
"<.	c #B6B9B6",
"[.	c #ADB1AD",
"}.	c #ACAFAC",
"|.	c #CED2CE",
"1.	c #C1C4C1",
"2.	c #BABDBA",
"3.	c #B4B7B4",
"4.	c #ABAEAB",
"5.	c #BEC2BE",
"6.	c #B7BAB7",
"7.	c #B2B5B2",
"8.	c #AFB2AF",
"9.	c #BFC2BF",
"0.	c #AAADAA",
"a.	c #C9CDC9",
"b.	c #C4C7C4",
"c.	c #BBBFBB",
"d.	c #CFD2CF",
"e.	c #CBCECB",
"f.	c #C8CAC8",
"g.	c #C5C7C5",
"h.	c #C3C5C3",
"i.	c #C5C9C5",
"j.	c #B9BCB9",
"k.	c #B5B9B5",
"l.	c #B3B6B3",
"m.	c #B1B5B1",
"n.	c #A9ACA9",
"o.	c #C7CAC7",
"p.	c #C1C5C1",
"q.	c #BDC0BD",
"r.	c #B6BAB6",
". + @ # $ % & * = - - = = & % $ # @ + ; > > > > ",
"+ @ , ' & * - ) ! ~ ~ { ] = & % ^ / + ; > > > > ",
"@ , % * - { ( _ : : : _ ~ ] * < [ } + | > > > > ",
"# ' * - ! _ : 1 1 1 1 : ( ] * < ^ / 2 > > > > 3 ",
"$ < - ! _ 4 1 5 5 5 1 : ( 6 * % , 7 | > > 8 9 9 ",
"% * ) _ 4 5 5 5 5 0 a b c a d e f g h i j k l l ",
"& - ( : 1 5 5 5 1 m n o p q r s t u v w # x y z ",
"* ] _ 1 5 5 A B _ C D E F 1 _ ( ) - = $ # G H I ",
"= { J 1 5 1 A B ) K L L F 1 : M ! { N ^ O P Q Q ",
"= { J : 1 1 R > = < $ & & & < % ' ^ . S T U V V ",
"= { 6 W j X Y ^ ^ K = [ [ [ ^ ^ ^ 2 Z x w `  . .",
"* ] N > % ! > % M ! ..} } } 2 } + +.@.#.$. .%.%.",
"& - ) * = - &.% = < . @ @ @ 2 @ | *.=.-.u %.;.>.",
"< * = * = - - _ = ;.| ; ; ; + | +.,.'.).v ;.!.!.",
"$ % < % < < 1 ..<  .- ~.{.< ].[ # ^./.| '.!.(.(.",
", [ $ [ $ $ @ . > ;.> 8 > _.3 w l v :.<.G [.}.(.",
"/ } } / @ + . _.>  .+.k Z |.S l v 1.2.3.#.(.4.}.",
"+ + + 2 . | > > 3 ;.+.k Z k 1.5.U 6.7.8.9.4.0.(.",
". . | | > > 8 9 a. .b.G #.P c.V  .3.8.;.Y 0.4.(.",
"_.> > > > *.,.x '.w T d.S e.t f.g.g.h.'.g.0.}.[.",
"> > > > *.a.i.G P c.j.` k.l.m.>.[.(.4.n.0.}.[.8.",
"> > > 8 k o.'.5.U V k.l.m.8.[.(.}.0.n.n.}.[.8.m.",
"> > > *.a.i.p.q.j.r.l.m.8.[.}.4.0.0.4.}.[.8.m. .",
"> > 3 9 a.i.G q.j.k.l.;.8.[.(.}.}.}.(.[.8.m. .V "};
